<?xml version="1.0" standalone="no"?>
<!DOCTYPE svg PUBLIC "-//W3C//DTD SVG 1.1//EN" "http://www.w3.org/Graphics/SVG/1.1/DTD/svg11.dtd">
<svg xmlns="http://www.w3.org/2000/svg">
<metadata>Generated by Fontastic.me</metadata>
<defs>
<font id="gstuff" horiz-adv-x="512">
<font-face font-family="gstuff" units-per-em="512" ascent="480" descent="-32"/>
<missing-glyph horiz-adv-x="512" />

<glyph glyph-name="arr" unicode="&#97;" d="M270 512l-114-233 228 0z m0-540l114 233-228 0z"/>
<glyph glyph-name="arrow-left" unicode="&#98;" d="M329 169l-98 98 98 98-30 30-128-128 128-128z"/>
<glyph glyph-name="arrow-right" unicode="&#99;" d="M182 364l100-97-97-99 31-29 125 128-131 126z"/>
<glyph glyph-name="arrow-right-1" unicode="&#100;" d="M182 364l100-97-97-99 31-29 125 128-131 126z"/>
<glyph glyph-name="close" unicode="&#101;" d="M501 131l-126 125 128 125c9 9 12 17 12 29 0 11-3 20-12 28l-59 60c-9 8-17 11-29 11-11 0-20-3-28-11l-131-125-125 128c-9 8-20 11-31 11-12 0-20-3-29-11l-60-60c-8-9-11-17-11-29 0-11 3-19 11-28l128-128-128-125c-8-9-11-17-11-29 0-11 3-20 11-28l60-60c9-8 17-11 29-11 11 0 19 3 28 11l128 125 128-125c9-8 17-11 28-11 12 0 20 3 29 11l60 60c8 8 11 17 11 28 0 9-3 20-11 29z"/>
<glyph glyph-name="close-1" unicode="&#102;" d="M405 375l-30 30-119-119-119 119-30-30 119-119-119-119 30-30 119 119 119-119 30 30-119 119z"/>
<glyph glyph-name="facebook-logo" unicode="&#103;" d="M384 512l-66 0c-75 0-124-50-124-126l0-58-66 0c-6 0-11-5-11-11l0-84c0-6 5-11 11-11l66 0 0-212c0-6 5-11 11-11l87 0c6 0 11 5 11 11l0 213 78 0c6 0 11 4 11 10l0 85c0 2-1 5-3 7-2 2-5 3-8 3l-78 0 0 49c0 24 5 36 36 36l45 0c5 0 10 5 10 11l0 77c0 6-4 11-10 11z"/>
<glyph glyph-name="file" unicode="&#104;" d="M338 438c-2 3-5 6-11 9l0-128 131 0c-3 2-6 8-9 8z m-39-148c-6 6-9 12-9 17l0 148-222 0c-5 0-11-3-17-8-5-3-8-12-8-17l0-433c0-8 3-14 8-17 6-6 12-8 17-8l373 0c8 0 14 2 20 8 5 6 8 11 8 17l0 285-150 0c-9 0-15 2-20 8z m62-213c-3-3-3-3-5-3l-197 0c-3 0-5 0-5 3-3 3-3 3-3 5l0 18c0 2 0 5 3 5 2 3 2 3 5 3l197 0c2 0 5 0 5-3 3-3 3-3 3-5l0-15c0-3-3-5-3-8z m0 71c-3-3-3-3-5-3l-197 0c-3 0-5 0-5 3-3 3-3 3-3 6l0 17c0 3 0 5 3 5 2 3 2 3 5 3l197 0c2 0 5 0 5-3 3-2 3-2 3-5l0-17c0-3-3-6-3-6z m0 68c-3-3-3-3-5-3l-197 0c-3 0-5 0-5 3-3 3-3 3-3 6l0 17c0 3 0 6 3 6 2 2 2 2 5 2l197 0c2 0 5 0 5-2 3-3 3-3 3-6l0-17c0-3-3-6-3-6z"/>
<glyph glyph-name="google-plus" unicode="&#105;" d="M393 278l-183 0 0-61 111 0c-16-53-66-92-125-92-72 0-131 59-131 131 0 72 59 131 131 131 37 0 70-15 94-39l44 48c-35 35-84 56-138 56-108 0-196-87-196-196 0-108 88-196 196-196 95 0 179 67 197 157z m119 0l-38 0 0 37-32 0 0-37-37 0 0-32 37 0 0-38 32 0 0 38 38 0z"/>
<glyph glyph-name="linkedin-logo" unicode="&#106;" d="M512 201l0-190-110 0 0 177c0 44-16 75-55 75-31 0-49-21-57-41-3-7-3-16-3-26l0-185-110 0c0 0 1 299 0 330l110 0 0-46c-1-1-1-1-1-1l1 0 0 1c14 22 40 54 99 54 72 0 126-47 126-148z m-450 300c-37 0-62-25-62-57 0-32 24-57 61-57l0 0c39 0 63 25 63 57-1 32-24 57-62 57z m-55-490l109 0 0 331-109 0z"/>
<glyph glyph-name="menu" unicode="&#107;" d="M0 224l512 0 0 64-512 0z m0 224l0-64 512 0 0 64z m128-384l384 0 0 64-384 0z"/>
<glyph glyph-name="pinterest-logo" unicode="&#108;" d="M478 384c-23 40-54 71-94 94-39 23-81 34-128 34-46 0-89-11-128-34-40-23-71-54-94-94-23-39-34-82-34-128 0-52 14-99 42-141 29-42 66-74 111-94-1 24 1 44 5 59l33 140c-6 10-8 24-8 40 0 19 4 35 14 47 9 13 21 19 35 19 11 0 20-3 26-11 6-7 9-16 9-27 0-7-2-15-4-25-3-10-6-22-10-35-4-13-7-23-9-31-3-13-1-25 8-35 8-9 19-14 32-14 24 0 44 13 59 40 15 26 23 58 23 96 0 29-10 53-29 71-18 18-45 27-78 27-38 0-68-12-91-36-23-24-35-53-35-87 0-20 6-36 17-50 4-4 5-9 4-14-1-2-2-5-3-10-1-6-2-9-3-11-1-7-6-9-12-6-17 7-30 19-39 37-9 17-14 38-14 61 0 15 3 29 7 44 5 15 13 30 23 44 10 13 22 26 36 36 14 11 31 20 52 26 20 6 42 10 65 10 32 0 60-7 85-21 25-14 44-32 58-55 13-22 19-46 19-71 0-33-5-63-17-90-11-27-28-48-49-63-21-15-45-23-72-23-14 0-26 3-38 10-12 6-20 14-24 22-10-39-16-62-18-70-4-16-13-34-26-55 24-7 48-10 72-10 47 0 90 11 129 34 39 23 70 54 93 93 23 40 34 82 34 129 0 46-11 89-34 128z"/>
<glyph glyph-name="play-button" unicode="&#109;" d="M435 334c-7 4-17 2-22-6-4-7-2-17 6-22 17-11 27-30 27-50 0-20-10-39-27-50l-263-165c-19-11-41-12-60-1-19 10-30 30-30 52l0 328c0 22 11 42 30 52 18 11 41 10 60-1l153-96c7-5 17-2 22 5 4 8 2 18-6 22l-152 96c-28 18-63 19-92 2-30-16-47-46-47-80l0-328c0-34 17-64 47-80 14-7 29-12 44-12 17 0 33 5 48 14l262 164c27 17 43 46 43 78 0 32-16 61-43 78z"/>
<glyph glyph-name="twitter-logo" unicode="&#110;" d="M512 415c-19-9-39-14-60-17 21 13 38 34 46 58-20-12-43-21-67-25-19 20-46 33-77 33-58 0-105-47-105-105 0-8 1-16 3-24-87 4-164 46-216 110-9-16-15-34-15-53 0-37 19-69 47-87-17 0-33 5-48 13l0-2c0-50 37-93 85-103-9-2-18-3-28-3-7 0-13 0-20 2 14-42 52-72 98-73-35-28-81-45-130-45-8 0-17 0-25 1 47-30 102-47 161-47 193 0 299 160 299 299l-1 13c21 15 39 34 53 55z"/>
<glyph glyph-name="instagram" unicode="&#111;" d="M381 0l-250 0c-72 0-131 59-131 131l0 250c0 72 59 131 131 131l250 0c72 0 131-59 131-131l0-250c0-72-59-131-131-131z m-250 483c-56 0-102-46-102-102l0-250c0-56 46-102 102-102l250 0c56 0 102 46 102 102l0 250c0 56-46 102-102 102l-250 0z m366-163l-180 0c-8 0-15 6-15 15 0 8 7 14 15 14l180 0c8 0 15-6 15-14 0-9-7-15-15-15z m-306 0l-176 0c-8 0-15 6-15 15 0 8 7 14 15 14l176 0c8 0 15-6 15-14 0-9-7-15-15-15z m65-178c-63 0-114 51-114 114 0 63 51 114 114 114 63 0 114-51 114-114 0-63-51-114-114-114z m0 199c-47 0-85-38-85-85 0-47 38-85 85-85 47 0 85 38 85 85 0 47-38 85-85 85z m165 17l-66 0c-8 0-14 6-14 14l0 66c0 8 6 15 14 15l66 0c8 0 15-7 15-15l0-66c0-8-7-14-15-14z m-51 29l37 0 0 37-37 0z"/>
</font></defs></svg>
